<?xml version="1.0" encoding="utf-8"?>
<!-- Generator: Adobe Illustrator 18.1.0, SVG Export Plug-In . SVG Version: 6.00 Build 0)  -->
<!DOCTYPE svg PUBLIC "-//W3C//DTD SVG 1.1//EN" "http://www.w3.org/Graphics/SVG/1.1/DTD/svg11.dtd">
<svg version="1.1" id="Layer_1" xmlns="http://www.w3.org/2000/svg" xmlns:xlink="http://www.w3.org/1999/xlink" x="0px" y="0px"
	 viewBox="0 0 89.2 98.3" enable-background="new 0 0 89.2 98.3" xml:space="preserve">
<g>
	<path fill="#FFFFFF" d="M61.2,58.9c2.6,3,2.4,7.4-0.3,9.7l0,0c-2.8,2.3-7.1,1.7-9.6-1.3L28.6,40.6c-2.6-3-2.4-7.4,0.3-9.7l0,0
		c2.8-2.3,7.1-1.7,9.6,1.3L61.2,58.9z"/>
	<g>
		<path fill="#FFFFFF" d="M8,4.8L7,5.6C-0.4,11.8-2.2,21.8,2.9,28l16.6,19.7c3.7,4.4,10.1,5.6,16.1,3.5l-9.6-11.4
			c-1.1-0.5-2-1.2-2.8-2.2L13.5,26c-3-3.6-2.5-9,1.1-12l0.5-0.4c3.6-3.1,9-2.6,12,1l9.8,11.6c1,1.2,1.6,2.5,1.8,3.9l9.2,11
			c3.2-5.7,3.2-12.3-0.6-16.8L30.7,4.5C25.6-1.6,15.4-1.5,8,4.8z"/>
		<path fill="#FFFFFF" d="M53.2,47.3l8.2,9.7c0.3,0.4,0.6,0.8,0.8,1.2c1.4,0.5,2.8,1.3,3.8,2.6l9.8,11.6c3,3.6,2.5,9-1.1,12
			l-0.5,0.4c-3.6,3.1-9,2.6-12-1l-9.8-11.6c-0.9-1.1-1.5-2.4-1.8-3.7c-0.5-0.3-1-0.8-1.4-1.2l-8.1-9.6c-3.1,5.6-3,12.1,0.7,16.5
			l16.6,19.7c5.2,6.1,15.3,6,22.8-0.3l0.9-0.8c7.4-6.3,9.3-16.3,4.1-22.4L69.7,50.7C65.9,46.2,59.3,45.1,53.2,47.3z"/>
	</g>
</g>
</svg>
